INDEX VERSION 1.126+D:\KitKatCodas\.metadata\.plugins\org.eclipse.jdt.core
59887743.index
2465654258.index
458027291.index
1466997490.index
121160289.index
1284074322.index
45139509.index
3442488961.index
2864263195.index
848856923.index
